{
   "_meta": {
      "count": 3,
      "limit": 3,
      "page": 1,
      "totalPages": 2,
      "totalRecords": 5
   },
   "feedbackSettings": [
      {
         "id": "9a24743c-5c19-4774-954e-a3ad67a734e1",
         "personId": "49a974ea-9137-419b-bcb9-ad74c81a1d1f",
         "channels": [
            {
               "contactMethod": "SMS",
               "destination": "0706100001",
               "sendFeedback": true
            }
         ],
         "created": "2022-01-10T10:00:00+01:00"
      },
      {
         "id": "9a24743c-5c19-4774-954e-a3ad67a734e2",
         "personId": "49a974ea-9137-419b-bcb9-ad74c81a1d2f",
         "channels": [
            {
               "contactMethod": "EMAIL",
               "destination": "person.2@company.com",
               "sendFeedback": true
            },
            {
               "contactMethod": "SMS",
               "destination": "0706100002",
               "sendFeedback": true
            }
         ],
         "created": "2022-01-10T10:00:00+01:00"
      },
      {
         "id": "9a24743c-5c19-4774-954e-a3ad67a734e3",
         "personId": "49a974ea-9137-419b-bcb9-ad74c81a1d3f",
         "channels": [
            {
               "contactMethod": "EMAIL",
               "destination": "person.3@company.com",
               "sendFeedback": true
            },
            {
               "contactMethod": "SMS",
               "destination": "0706100003",
               "sendFeedback": true
            },
            {
               "contactMethod": "SMS",
               "destination": "0736100003",
               "sendFeedback": true
            }
         ],
         "created": "2022-01-10T10:00:00+01:00"
      }
   ]
}